Guias/Guia_09/Guia_0905.vcd
$date
	Sun Apr 14 13:56:27 2024
$end
$version
	Icarus Verilog
$end
$timescale
	1s
$end
$scope module Guia_0905 $end
$var wire 1 ! clock $end
$upscope $end
$scope module Guia_0905 $end
$var wire 1 " p $end
$upscope $end
$enddefinitions $end
$comment Show the parameter values. $end
$dumpall
$end
#0
$dumpvars
x"
0!
$end
#12
1"
1!
#14
0"
#24
0!
#36
1"
1!
#38
0"
#48
0!
#60
1"
1!
#62
0"
#72
0!
#84
1"
1!
#86
0"
#96
0!
#108
1"
1!
#110
0"
