Guias/Guia_09/Guia_0904.vcd
$date
	Sun Apr 14 13:33:17 2024
$end
$version
	Icarus Verilog
$end
$timescale
	1s
$end
$scope module Guia_0904 $end
$var wire 1 ! clock $end
$upscope $end
$scope module Guia_0904 $end
$var wire 1 " p $end
$upscope $end
$enddefinitions $end
$comment Show the parameter values. $end
$dumpall
$end
#0
$dumpvars
1"
0!
$end
#4
0"
#8
1"
#12
0"
1!
#24
1"
0!
#28
0"
#32
1"
#36
0"
1!
#48
1"
0!
#52
0"
#56
1"
#60
0"
1!
#72
1"
0!
#76
0"
#80
1"
#84
0"
1!
#96
1"
0!
#100
0"
#104
1"
#108
0"
1!
#120
1"
0!
