Guias/Guia_09/Guia_0901.vcd
$date
	Sun Apr 14 11:25:11 2024
$end
$version
	Icarus Verilog
$end
$timescale
	1s
$end
$scope module Guia_0901 $end
$var wire 1 ! clock $end
$upscope $end
$scope module Guia_0901 $end
$var wire 1 " p1 $end
$upscope $end
$scope module Guia_0901 $end
$var reg 1 # p $end
$upscope $end
$scope module Guia_0901 $end
$var wire 1 $ t1 $end
$upscope $end
$enddefinitions $end
$comment Show the parameter values. $end
$dumpall
$end
#0
$dumpvars
x$
0#
1"
0!
$end
#2
0"
#4
1"
#6
0"
#12
1"
1!
#14
0"
#16
1"
#18
0"
#20
1#
#24
1"
0!
#26
0"
#28
1"
#30
0"
1$
#36
1"
1!
#38
0"
#40
1"
0$
#42
0"
#48
1"
0!
#50
0"
#52
1"
#54
0"
#60
1"
1!
0#
#62
0"
#64
1"
#66
0"
#72
1"
0!
#74
0"
#76
1"
#78
0"
#84
1"
1!
#86
0"
#88
1"
#90
0"
#96
1"
0!
#98
0"
#100
1"
#102
0"
#108
1"
1!
#110
0"
#112
1"
#114
0"
#120
1"
0!
1#
#122
0"
#124
1"
#126
0"
#132
1"
1!
#134
0"
#136
1"
#138
0"
#142
1$
#144
1"
0!
#146
0"
#148
1"
#150
0"
#152
0$
#156
1"
1!
#158
0"
#160
1"
#162
0"
#166
1$
#168
1"
0!
#170
0"
#172
1"
#174
0"
#176
0$
#180
1"
1!
#182
0"
#184
1"
#186
0"
#190
1$
#192
1"
0!
#194
0"
#196
1"
#198
0"
#200
0$
0#
#204
1"
1!
#206
0"
#208
1"
#210
0"
#216
1"
0!
#218
0"
#220
1"
#222
0"
#228
1"
1!
#230
0"
#232
1"
#234
0"
#240
1"
0!
#242
0"
#244
1"
#246
0"
#252
1"
1!
#254
0"
#256
1"
#258
0"
#264
1"
0!
#266
0"
#268
1"
#270
0"
#276
1"
1!
#278
0"
#280
1"
#282
0"
#288
1"
0!
#290
0"
#292
1"
#294
0"
#300
1"
1!
1#
#302
0"
#304
1"
#306
0"
#310
1$
#312
1"
0!
#314
0"
#316
1"
#318
0"
#320
0$
#324
1"
1!
#326
0"
#328
1"
#330
0"
#334
1$
#336
1"
0!
#338
0"
#340
1"
#342
0"
#344
0$
#348
1"
1!
#350
0"
#352
1"
#354
0"
#358
1$
#360
1"
0!
#362
0"
#364
1"
#366
0"
#368
0$
#372
1"
1!
#374
0"
#376
1"
#378
0"
#382
1$
#384
1"
0!
#386
0"
#388
1"
#390
0"
#392
0$
#396
1"
1!
#398
0"
#400
1"
#402
0"
#406
1$
#408
1"
0!
#410
0"
#412
1"
#414
0"
#416
0$
#420
1"
1!
0#
#422
0"
#424
1"
#426
0"
#432
1"
0!
#434
0"
#436
1"
#438
0"
#444
1"
1!
#446
0"
#448
1"
#450
0"
#456
1"
0!
#458
0"
#460
1"
#462
0"
#468
1"
1!
#470
0"
#472
1"
#474
0"
#480
1"
0!
#482
0"
#484
1"
#486
0"
#492
1"
1!
#494
0"
#496
1"
#498
0"
#504
1"
0!
#506
0"
#508
1"
#510
0"
#516
1"
1!
#518
0"
#520
1"
#522
0"
#528
1"
0!
#530
0"
#532
1"
#534
0"
#540
1"
1!
#542
0"
#544
1"
#546
0"
#552
1"
0!
#554
0"
#556
1"
#558
0"
